<?xml version="1.0" encoding="utf-8"?>
<!-- Generator: Adobe Illustrator 16.0.0, SVG Export Plug-In . SVG Version: 6.00 Build 0)  -->
<!DOCTYPE svg PUBLIC "-//W3C//DTD SVG 1.1//EN" "http://www.w3.org/Graphics/SVG/1.1/DTD/svg11.dtd">
<svg version="1.1" id="Layer_1" xmlns="http://www.w3.org/2000/svg" xmlns:xlink="http://www.w3.org/1999/xlink" x="0px" y="0px"
	 width="156px" height="100px" viewBox="0 0 156 100" enable-background="new 0 0 156 100" xml:space="preserve">
<g>
	<rect x="-1.5" y="-1.75" fill="#1A96D4" width="159" height="103.25"/>
	<g>
		<path fill="#FFFFFF" d="M78.865,86.057c19.909-0.478,35.663-17.004,35.189-36.915c-0.167-6.884-2.251-13.27-5.728-18.661
			c-6.922-0.096-13.887,1.916-16.481,2.604c4.76,3.896,7.854,9.767,8.012,16.395c0.218,9.184-5.254,17.178-13.201,20.603
			c-0.844-1.974-1.162-2.712-1.994-4.639C76.893,70,65.59,75.074,52.628,75.627C59.349,82.283,68.662,86.299,78.865,86.057"/>
		<path fill="#FFFFFF" d="M77.133,13.944c-19.912,0.476-35.664,17.003-35.187,36.913c0.164,6.886,2.246,13.274,5.725,18.664
			c6.921,0.097,13.886-1.916,16.478-2.605c-4.757-3.897-7.85-9.767-8.009-16.396c-0.218-9.182,5.252-17.174,13.197-20.604
			c0.847,1.976,1.164,2.713,1.996,4.637c7.77-4.554,19.074-9.625,32.034-10.183C96.648,17.717,87.335,13.699,77.133,13.944"/>
	</g>
</g>
</svg>
